Introduction to Quarto
…
group_by multiple variables

lobsters %>%
  group_by(site, year) %>%
  summarise(count_by_siteyear =  n())

# A tibble: 25 × 3
# Groups:   site [5]
   site   year count_by_siteyear
   <chr> <dbl>             <int>
 1 aque   2012                38
 2 aque   2013                32
 3 aque   2014               100
 4 aque   2015                83
 5 aque   2016                48
 6 carp   2012                78
 7 carp   2013                93
 8 carp   2014                79
 9 carp   2015                90
10 carp   2016               231
# ℹ 15 more rows

summarise multiple variables

lobsters %>%
  group_by(site, year) %>%
  summarise(count_by_siteyear =  n(),
            mean_size_mm = mean(size_mm))

# A tibble: 25 × 4
# Groups:   site [5]
   site   year count_by_siteyear mean_size_mm
   <chr> <dbl>             <int>        <dbl>
 1 aque   2012                38         71  
 2 aque   2013                32         72.1
 3 aque   2014               100         76.9
 4 aque   2015                83         68.5
 5 aque   2016                48         68.7
 6 carp   2012                78         74.4
 7 carp   2013                93         76.6
 8 carp   2014                79         NA  
 9 carp   2015                90         70.7
10 carp   2016               231         68.9
# ℹ 15 more rows

You may notice that NA turns up for some entries, this is because the mean() function in R returns an NA if any values are missing. The argument na.rm= allows us to tell R to ignore missing values when computing the mean:

lobsters %>%
  group_by(site, year) %>%
  summarise(count_by_siteyear =  n(), 
            mean_size_mm = mean(size_mm, na.rm = T))

# A tibble: 25 × 4
# Groups:   site [5]
   site   year count_by_siteyear mean_size_mm
   <chr> <dbl>             <int>        <dbl>
 1 aque   2012                38         71  
 2 aque   2013                32         72.1
 3 aque   2014               100         76.9
 4 aque   2015                83         68.5
 5 aque   2016                48         68.7
 6 carp   2012                78         74.4
 7 carp   2013                93         76.6
 8 carp   2014                79         79.1
 9 carp   2015                90         70.7
10 carp   2016               231         68.9
# ℹ 15 more rows
…
